Como usar quarto
…
library(inti)

model <- remove_outliers(data = fb
                         , formula = lfa ~ riego + geno + riego*geno + (1|bloque)
                         , plot_diag = T
                         )
model
## $data
## $data$raw
## # A tibble: 150 × 5
##    index riego    geno  bloque   lfa
##    <chr> <chr>    <chr> <chr>  <dbl>
##  1 1     sequia   G01   II     2900 
##  2 2     sequia   G02   IV     2619.
##  3 3     irrigado G01   III    7579.
##  4 4     sequia   G02   I      2450.
##  5 5     irrigado G03   II     5413.
##  6 6     irrigado G04   V      9791.
##  7 7     irrigado G01   I      7038.
##  8 8     irrigado G05   IV     9794.
##  9 9     sequia   G06   II     3199.
## 10 10    sequia   G05   I      1658.
## # ℹ 140 more rows
## 
## $data$clean
##     index    riego geno bloque      lfa
## 1       1   sequia  G01     II  2900.00
## 2       2   sequia  G02     IV  2618.85
## 3       3 irrigado  G01    III  7578.79
## 4       4   sequia  G02      I  2449.59
## 5       5 irrigado  G03     II  5412.51
…
